…
``` r
dmso.evcfc <- evc.fc.10h %>% 
  left_join(libplate_map %>% select(srn_code, `Catalog Number`)) %>% 
  filter(`Catalog Number` == "DMSO")
```

    ## Joining with `by = join_by(srn_code)`

``` r
dmso.evcfc %>% 
  group_by(promoter_replicate) %>% 
  summarise(n_dmso_wells = n())
```

    ## # A tibble: 58 × 2
    ##    promoter_replicate n_dmso_wells
    ##    <chr>                     <int>
    ##  1 PEVC2_r1                    126
    ##  2 PEVC2_r2                    126
    ##  3 PEVC_r1                     126
    ##  4 PEVC_r2                     126
    ##  5 PacrAB_r1                   126
    ##  6 PacrAB_r2                   126
    ##  7 ParcZ_r1                    126
    ##  8 ParcZ_r2                    126
    ##  9 PcpxP_r1                    126
    ## 10 PcpxP_r2                    126
    ## # ℹ 48 more rows
…
hit_table.metadata <- hit_table %>% 
  select(-c(promoter_replicate, replicate)) %>% 
  
  left_join(chemical_information, by="srn_code")
```

``` r
hit_table.metadata %>% 
  filter(hit != "Not DE",
         promoter == "PvirK") %>% 
  arrange(hit)
```

    ## # A tibble: 59 × 14
    ##    srn_code promoter log.evcfc dmso.mean dmso.stdv zscore   pvalue pvalue.adj
    ##    <chr>    <chr>        <dbl>     <dbl>     <dbl>  <dbl>    <dbl>      <dbl>
    ##  1 lp1_H12  PvirK       -0.550   0.0116      0.141  -4.00 6.44e- 5   3.02e- 3
    ##  2 lp1_I4   PvirK       -0.572   0.0116      0.141  -4.15 3.28e- 5   1.67e- 3
    ##  3 lp1_O19  PvirK       -0.565  -0.00771     0.135  -4.13 3.65e- 5   1.82e- 3
    ##  4 lp1_O22  PvirK       -1.15    0.0116      0.141  -8.28 1.27e-16   1.73e-14
    ##  5 lp1_P2   PvirK       -1.27    0.0116      0.141  -9.09 9.73e-20   1.70e-17
    ##  6 lp2_G15  PvirK       -0.671  -0.00771     0.135  -4.91 8.98e- 7   6.26e- 5
    ##  7 lp2_N2   PvirK       -0.561   0.0116      0.141  -4.08 4.58e- 5   2.20e- 3
    ##  8 lp2_N22  PvirK       -0.549   0.0116      0.141  -3.99 6.69e- 5   3.08e- 3
    ##  9 lp3_G19  PvirK       -0.968   0.0116      0.141  -6.97 3.25e-12   3.30e-10
    ## 10 lp3_G21  PvirK       -0.542  -0.00771     0.135  -3.96 7.55e- 5   3.41e- 3
    ## # ℹ 49 more rows
    ## # ℹ 6 more variables: hit <chr>, ProductName <chr>, antibiotic <lgl>,
    ## #   chemtype_mce <chr>, ATC_level1 <chr>, ATC_level2 <chr>
…
